Chapter 23 Grouping and counting: summarise, tally, count, group_size, n_groups, ungroup | BADM 371 Intro to Data Analytics
…
# group_size() returns the counts as a vector
flights %>% group_by(month) %>% group_size()
#>  [1] 27004 24951 28834 28330 28796 28243 29425 29327 27574
#> [10] 28889 27268 28135

# n_groups() simply reports the number of groups
flights %>% group_by(month) %>% n_groups()
#> [1] 12

# group by two variables, summarise, arrange (output is possibly confusing)
flights %>% group_by(month, day) %>% summarise(cnt = n()) %>% arrange(desc(cnt)) %>% print(n = 40)
#> `summarise()` has grouped output by 'month'. You can override using the `.groups` argument.
#> # A tibble: 365 x 3
#> # Groups:   month [12]
#>    month   day   cnt
#>    <int> <int> <int>
#>  1    11    27  1014
#>  2     7    11  1006
#>  3     7     8  1004
#>  4     7    10  1004
#>  5    12     2  1004
#>  6     7    18  1003
#>  7     7    25  1003
#>  8     7    12  1002
#>  9     7     9  1001
#> 10     7    17  1001
#> 11     7    31  1001
#> 12     8     7  1001
#> 13     8     8  1001
#> 14     8    12  1001
#> 15     7    22  1000
#> 16     7    24  1000
#> 17     8     1  1000
#> 18     8     5  1000
#> 19     8    15  1000
#> 20    11    21  1000
#> 21     7    15   999
#> 22     7    19   999
#> 23     7    26   999
#> 24     7    29   999
#> 25     8     2   999
#> 26     8     9   999
#> 27    11    22   999
#> 28     8    16   998
#> 29     7    23   997
#> 30     7    30   997
#> 31     8    14   997
#> 32     7    16   996
#> 33     8     6   996
#> 34     8    19   996
#> 35     9    13   996
#> 36     9    26   996
#> 37     9    27   996
#> 38     4    15   995
#> 39     6    20   995
#> 40     6    26   995
#> # ... with 325 more rows

# ungroup() before arranging to arrange across all groups
flights %>% group_by(month, day) %>% summarise(cnt = n()) %>% ungroup() %>% arrange(desc(cnt))
#> `summarise()` has grouped output by 'month'. You can override using the `.groups` argument.
#> # A tibble: 365 x 3
#>    month   day   cnt
#>    <int> <int> <int>
#>  1    11    27  1014
#>  2     7    11  1006
#>  3     7     8  1004
#>  4     7    10  1004
#>  5    12     2  1004
#>  6     7    18  1003
#>  7     7    25  1003
#>  8     7    12  1002
#>  9     7     9  1001
#> 10     7    17  1001
#> # ... with 355 more rows
…
